<svg width="60" height="31" viewBox="0 0 60 31" fill="none" xmlns="http://www.w3.org/2000/svg">
<path d="M29.8517 0.743924C29.8517 0.743924 24.3802 0.197924 24.732 6.43792C25.0837 12.6779 29.8517 27.1469 29.8517 27.1469C29.8517 27.1469 34.5806 12.6779 34.9714 6.43792C35.3231 0.158924 29.8517 0.743924 29.8517 0.743924Z" fill="#922E34"/>
<path d="M12.343 5.69704C12.343 5.69704 7.49687 8.23204 11.2487 13.263C15.0006 18.255 26.9987 27.693 26.9987 27.693C26.9987 27.693 22.9342 13.029 19.7295 7.60804C16.5639 2.22604 12.343 5.69704 12.343 5.69704Z" fill="#922E34"/>
<path d="M0.892044 19.23C0.892044 19.23 -2.00002 23.91 3.82318 26.289C9.6073 28.668 24.732 30.696 24.732 30.696C24.732 30.696 13.7109 20.166 8.23944 17.124C2.76797 14.043 0.892044 19.23 0.892044 19.23Z" fill="#922E34"/>
<path d="M48.4547 13.263C52.2066 8.27104 47.3604 5.69704 47.3604 5.69704C47.3604 5.69704 43.1396 2.22604 39.9739 7.60804C36.8083 13.029 32.7438 27.693 32.7438 27.693C32.7438 27.693 44.6638 18.255 48.4547 13.263Z" fill="#922E34"/>
<path d="M58.7723 19.2299C58.7723 19.2299 56.8964 14.0819 51.4249 17.1239C45.9535 20.1659 34.9324 30.6959 34.9324 30.6959C34.9324 30.6959 50.0571 28.6679 55.8412 26.2889C61.6644 23.8709 58.7723 19.2299 58.7723 19.2299Z" fill="#922E34"/>
</svg>
